…
``` r
df_seoul_air_pollution %>% 
  filter(`Measurement date`<= as.Date("2019-03-20"), `Measurement date` >= as.Date("2019-03-11"),
         `Station code` == 104)
```

    ## # A tibble: 47 x 11
    ##    `Measurement date`  `Station code` Address Latitude Longitude   SO2   NO2
    ##    <dttm>                       <int> <chr>      <dbl>     <dbl> <dbl> <dbl>
    ##  1 2019-03-11 05:00:00            104 215, J~     37.6      127. 0.004 0.035
    ##  2 2019-03-11 06:00:00            104 215, J~     37.6      127. 0.005 0.056
    ##  3 2019-03-11 07:00:00            104 215, J~     37.6      127. 0.005 0.058
    ##  4 2019-03-11 09:00:00            104 215, J~     37.6      127. 0.006 0.064
    ##  5 2019-03-18 06:00:00            104 215, J~     37.6      127. 0.004 0.04 
    ##  6 2019-03-18 07:00:00            104 215, J~     37.6      127. 0.004 0.049
    ##  7 2019-03-18 08:00:00            104 215, J~     37.6      127. 0.005 0.048
    ##  8 2019-03-18 09:00:00            104 215, J~     37.6      127. 0.005 0.044
    ##  9 2019-03-18 10:00:00            104 215, J~     37.6      127. 0.005 0.046
    ## 10 2019-03-18 11:00:00            104 215, J~     37.6      127. 0.004 0.041
    ## # ... with 37 more rows, and 4 more variables: O3 <dbl>, CO <dbl>, PM10 <dbl>,
    ## #   PM2.5 <dbl>
…
The goal of this RMD is to forecast O<sub>3</sub> and NO<sub>2</sub>
concentration in the future using ARIMA Method therefore, we select only
the required columns (which are O<sub>3</sub>, NO<sub>2</sub>, and
Measurement date) to make our dataframe clean and tidy. We dont really
need any of station detail such as coordinate, address, code, etc
because we want to make a time series model.

``` r
# check the unique value of station code
df_seoul_air_pollution %>% 
  distinct(`Station code`)
```

    ## # A tibble: 25 x 1
    ##    `Station code`
    ##             <int>
    ##  1            101
    ##  2            102
    ##  3            103
    ##  4            104
    ##  5            105
    ##  6            106
    ##  7            107
    ##  8            108
    ##  9            109
    ## 10            110
    ## # ... with 15 more rows
…
